…
grouped_never_rec %>% arrange(desc(perc_never), desc(n)) 
```

    ## # A tibble: 116 x 9
    ##    GEOID never never_sec n_sec perc_sec_never     n perc_never sec_desc  NAME   
    ##    <chr> <int>     <int> <int>          <dbl> <int>      <dbl> <list>    <chr>  
    ##  1 13131     1         1     1          1         1      1     <chr [1]> Grady …
    ##  2 13035     2         2     2          1         3      0.667 <chr [3]> Butts …
    ##  3 13169     2         1     1          1         4      0.5   <chr [4]> Jones …
    ##  4 13231     2         1     1          1         4      0.5   <chr [4]> Pike C…
    ##  5 13081     3         1     1          1        10      0.3   <chr [10… Crisp …
    ##  6 13217     4         4     6          0.667    14      0.286 <chr [14… Newton…
    ##  7 13211     2         2     2          1         7      0.286 <chr [7]> Morgan…
    ##  8 13305     2         2     2          1         8      0.25  <chr [8]> Wayne …
    ##  9 13047     1         1     1          1         4      0.25  <chr [4]> Catoos…
    ## 10 13149     1         1     1          1         4      0.25  <chr [4]> Heard …
    ## # … with 106 more rows
…
grouped_never_rec%>% arrange(desc(perc_never), desc(n)) 
```

    ## # A tibble: 438 x 10
    ##    issuer_n never never_sec n_sec perc_sec_never     n perc_never sec_desc GEOID
    ##    <chr>    <int>     <int> <int>          <dbl> <int>      <dbl> <list>   <chr>
    ##  1 36274P       2         1     1          1         2     1      <chr [2… 13139
    ##  2 04781G       1         1     1          1         3     0.333  <chr [3… 13121
    ##  3 26114C       1         1     1          1         3     0.333  <chr [3… 13121
    ##  4 652577       1         1     2          0.5       3     0.333  <chr [3… 13217
    ##  5 226688       3         1     1          1        10     0.3    <chr [1… 13081
    ##  6 721115       1         1     1          1         4     0.25   <chr [4… 13231
    ##  7 05115C       2         1     1          1        12     0.167  <chr [1… 13245
    ##  8 243039       1         1     1          1         8     0.125  <chr [8… 13087
    ##  9 04777L       1         1     2          0.5      12     0.0833 <chr [1… 13121
    ## 10 12033R       1         1     3          0.333    13     0.0769 <chr [1… 13031
    ## # … with 428 more rows, and 1 more variable: NAME <chr>
…
